{
  "values": [
    "pagamos:bergstone",
    "pagamos:bergstone_slab",
    "pagamos:bergstone_stairs",
    "pagamos:cobbled_bergstone",
    "pagamos:cobbled_bergstone_slab",
    "pagamos:cobbled_bergstone_stairs",
    "pagamos:mistshale",
    "pagamos:mistshale_slab",
    "pagamos:mistshale_stairs",
    "pagamos:titian_growth"
  ]
}