{
  "ambient.frozen_hell.additions": {
    "sounds": [
      "pagamos:ambient/additions/echo_1",
      "pagamos:ambient/additions/echo_2",
      "pagamos:ambient/additions/echo_3"
    ]
  },
  "ambient.frozen_hell.loop": {
    "sounds": [
      {
        "name": "pagamos:ambient/frozen_hell_loop",
        "preload": true
      }
    ]
  },
  "ambient.misty_drifts.loop": {
    "sounds": [
      {
        "name": "pagamos:ambient/misty_drifts_loop",
        "preload": true
      }
    ]
  },
  "ambient.titanic_wilds.additions": {
    "sounds": [
      "pagamos:ambient/additions/titanic_wilds/hum_1",
      "pagamos:ambient/additions/titanic_wilds/hum_2",
      "pagamos:ambient/additions/titanic_wilds/hum_3",
      "pagamos:ambient/additions/titanic_wilds/moist_1",
      "pagamos:ambient/additions/titanic_wilds/moist_2",
      "pagamos:ambient/additions/titanic_wilds/moist_3",
      "pagamos:ambient/additions/titanic_wilds/moist_4",
      "pagamos:ambient/additions/titanic_wilds/moist_5",
      "pagamos:ambient/additions/titanic_wilds/moist_6"
    ]
  },
  "ambient.titanic_wilds.loop": {
    "sounds": [
      {
        "name": "pagamos:ambient/titanic_wilds_loop",
        "preload": true
      }
    ]
  },
  "block.pagamos_portal.ambient": {
    "sounds": [
      "pagamos:block/pagamos_portal/ambient"
    ],
    "subtitle": "subtitles.pagamos.block.pagamos_portal.ambient"
  },
  "block.pagamos_portal.destroy": {
    "sounds": [
      "pagamos:block/pagamos_portal/destroy"
    ],
    "subtitle": "subtitles.pagamos.block.pagamos_portal.destroy"
  },
  "block.pagamos_portal.light": {
    "sounds": [
      "pagamos:block/pagamos_portal/light"
    ],
    "subtitle": "subtitles.pagamos.block.pagamos_portal.light"
  },
  "block.pagamos_portal.travel": {
    "sounds": [
      "pagamos:block/pagamos_portal/travel"
    ],
    "subtitle": "subtitles.pagamos.block.pagamos_portal.travel"
  },
  "block.pagamos_portal.trigger": {
    "sounds": [
      "pagamos:block/pagamos_portal/trigger"
    ],
    "subtitle": "subtitles.pagamos.block.pagamos_portal.trigger"
  },
  "entity.crystal_phoenix.attack": {
    "sounds": [
      "pagamos:entity/crystal_phoenix/attack"
    ],
    "subtitle": "subtitles.pagamos.entity.crystal_phoenix.attack"
  },
  "entity.crystal_phoenix.death": {
    "sounds": [
      "pagamos:entity/crystal_phoenix/death"
    ],
    "subtitle": "subtitles.pagamos.entity.crystal_phoenix.death"
  },
  "entity.crystal_phoenix.hurt": {
    "sounds": [
      {
        "type": "event",
        "name": "pagamos:entity.crystal_phoenix.idle"
      }
    ],
    "subtitle": "subtitles.pagamos.entity.crystal_phoenix.hurt"
  },
  "entity.crystal_phoenix.idle": {
    "sounds": [
      "pagamos:entity/crystal_phoenix/idle"
    ],
    "subtitle": "subtitles.pagamos.entity.crystal_phoenix.idle"
  },
  "entity.ice_creeper.death": {
    "sounds": [
      {
        "type": "event",
        "name": "entity.creeper.death"
      }
    ],
    "subtitle": "subtitles.pagamos.entity.ice_creeper.death"
  },
  "entity.ice_creeper.hurt": {
    "sounds": [
      {
        "type": "event",
        "name": "entity.creeper.hurt"
      }
    ],
    "subtitle": "subtitles.pagamos.entity.ice_creeper.hurt"
  },
  "entity.ice_creeper.primed": {
    "sounds": [
      {
        "type": "event",
        "name": "entity.creeper.primed"
      }
    ],
    "subtitle": "subtitles.pagamos.entity.ice_creeper.primed"
  },
  "random.ice.crack": {
    "sounds": [
      "pagamos:ice_crack"
    ]
  }
}