{
  "type": "minecraft:crafting_shaped",
  "pattern": [
    "###",
    "# #",
    "###"
  ],
  "key": {
    "#": {
      "item": "minecraft:snow"
    }
  },
  "result": {
    "item": "pagamos:freezer"
  }
}