{
  "type": "minecraft:crafting_shaped",
  "pattern": [
    "#",
    "#"
  ],
  "key": {
    "#": {
      "item": "pagamos:ice_brick"
    }
  },
  "result": {
    "item": "pagamos:ice_rod",
    "count": 2
  }
}