{
  "type": "minecraft:crafting_shaped",
  "category": "misc",
  "key": {
    "#": "pagamos:ice_shard"
  },
  "pattern": [
    "#",
    "#"
  ],
  "result": {
    "count": 1,
    "id": "pagamos:ice_rod"
  }
}