{
  "type": "minecraft:crafting_shaped",
  "category": "building",
  "key": {
    "#": "pagamos:mistshale_tiles"
  },
  "pattern": [
    "###",
    "###"
  ],
  "result": {
    "count": 6,
    "id": "pagamos:mistshale_tile_wall"
  }
}