{
  "type": "minecraft:crafting_shaped",
  "category": "building",
  "key": {
    "#": "pagamos:polished_bergstone"
  },
  "pattern": [
    "#  ",
    "## ",
    "###"
  ],
  "result": {
    "count": 4,
    "id": "pagamos:polished_bergstone_stairs"
  }
}