{
  "type": "minecraft:crafting_shaped",
  "category": "equipment",
  "key": {
    "#": "#pagamos:sapphire_tool_materials"
  },
  "pattern": [
    "###",
    "# #",
    "# #"
  ],
  "result": {
    "count": 1,
    "id": "pagamos:sapphire_leggings"
  }
}