{
  "type": "minecraft:ore",
  "config": {
    "discard_chance_on_air_exposure": 0.0,
    "size": 8,
    "targets": [
      {
        "state": {
          "Name": "pagamos:snowed_tourmaline_ore"
        },
        "target": {
          "block": "pagamos:packed_snow",
          "predicate_type": "minecraft:block_match"
        }
      },
      {
        "state": {
          "Name": "pagamos:bergstone_tourmaline_ore"
        },
        "target": {
          "block": "pagamos:bergstone",
          "predicate_type": "minecraft:block_match"
        }
      }
    ]
  }
}