{
  "variants": {
    "": [
      {
        "model": "pagamos:block/bergstone"
      },
      {
        "model": "pagamos:block/bergstone_mirrored"
      },
      {
        "model": "pagamos:block/bergstone",
        "y": 180
      },
      {
        "model": "pagamos:block/bergstone_mirrored",
        "y": 180
      }
    ]
  }
}