{
  "parent": "minecraft:block/slab_top",
  "textures": {
    "bottom": "pagamos:block/cobbled_bergstone",
    "side": "pagamos:block/cobbled_bergstone",
    "top": "pagamos:block/cobbled_bergstone"
  }
}