{
  "parent": "minecraft:block/inner_stairs",
  "textures": {
    "bottom": "pagamos:block/polished_bergstone",
    "side": "pagamos:block/polished_bergstone",
    "top": "pagamos:block/polished_bergstone"
  }
}